# This file was created Fri Nov 27 12:16:26 2020
# Created by:
#                       :-) GROMACS - gmx energy, 2016 (-:
# 
# Executable:   /app/gromacs_2016/bin/gmx
# Data prefix:  /app/gromacs_2016
# Working dir:  /home/akchew/scratch/STRAP/polymer_solvent_sims/tutorial_energy_groups/P_in_S-PET_trimer-acetone-300_K
# Command line:
#   gmx energy -f poly_solv_prod_energy_groups.edr -s poly_solv_prod_energy_groups.tpr -o energy_groups.xvg
# gmx energy is part of G R O M A C S:
#
# Green Red Orange Magenta Azure Cyan Skyblue
#
@    title "GROMACS Energies"
@    xaxis  label "Time (ps)"
@    yaxis  label "(kJ/mol)"
@TYPE xy
@ view 0.15, 0.15, 0.75, 0.85
@ legend on
@ legend box on
@ legend loctype view
@ legend 0.78, 0.8
@ legend length 2
@ s0 legend "LJ-SR:PT3-PT3"
    0.000000  -12.774733
   10.000000   -7.141568
   20.000000   -3.298328
   30.000000   -2.018926
   40.000000   -6.231744
   50.000000  -12.482188
   60.000000   -3.653158
   70.000000  -13.466728
   80.000000  -21.514774
   90.000000  -10.737755
  100.000000   -9.849246
  110.000000   -8.396549
  120.000000   -8.730928
  130.000000   -7.991130
  140.000000   -0.425708
  150.000000  -12.205110
  160.000000  -11.492727
  170.000000  -14.479177
  180.000000  -21.422850
  190.000000  -11.818645
  200.000000  -11.308978
  210.000000  -10.268703
  220.000000   -1.049592
  230.000000  -14.496059
  240.000000  -12.399093
  250.000000   -8.719439
  260.000000  -22.941029
  270.000000  -27.953068
  280.000000  -21.561703
  290.000000  -13.707068
  300.000000   -2.670362
  310.000000   -3.732817
  320.000000  -12.029334
  330.000000  -29.077717
  340.000000   -8.297894
  350.000000   -6.110745
  360.000000  -11.835564
  370.000000  -11.606846
  380.000000  -12.697422
  390.000000   -1.775203
  400.000000   -9.703926
  410.000000  -14.669540
  420.000000  -15.815681
  430.000000  -13.959988
  440.000000   -1.166443
  450.000000  -14.334564
  460.000000  -13.937903
  470.000000   -8.540226
  480.000000   -7.968094
  490.000000  -13.817244
  500.000000   -2.948209
  510.000000    0.960687
  520.000000  -12.217504
  530.000000  -16.815226
  540.000000  -13.687321
  550.000000  -14.979402
  560.000000  -12.754998
  570.000000  -10.987720
  580.000000  -16.180973
  590.000000    0.416732
  600.000000   -2.101356
  610.000000  -10.788986
  620.000000  -19.927069
  630.000000   -7.040374
  640.000000   -8.924195
  650.000000  -15.330673
  660.000000  -14.996375
  670.000000  -13.275065
  680.000000  -16.798552
  690.000000   -6.901371
  700.000000  -13.400603
  710.000000  -10.621281
  720.000000  -10.335293
  730.000000  -17.612459
  740.000000  -17.900539
  750.000000  -10.269811
  760.000000    5.076508
  770.000000   -8.380813
  780.000000  -14.715688
  790.000000  -19.483181
  800.000000  -10.294140
  810.000000    4.722857
  820.000000   -6.822382
  830.000000   -9.314617
  840.000000   -7.406518
  850.000000  -10.976316
  860.000000    0.820031
  870.000000  -12.519749
  880.000000  -13.211745
  890.000000  -10.994524
  900.000000  -16.351139
  910.000000   -0.948475
  920.000000  -17.527618
  930.000000  -14.223955
  940.000000  -18.371687
  950.000000  -12.100607
  960.000000   -5.591894
  970.000000   -9.902040
  980.000000   -7.715927
  990.000000   -4.328876
 1000.000000  -10.976814
 1010.000000  -11.801492
 1020.000000  -15.663300
 1030.000000  -12.988569
 1040.000000  -14.240582
 1050.000000  -14.552644
 1060.000000  -10.062321
 1070.000000   -8.463566
 1080.000000  -17.525391
 1090.000000  -15.053340
 1100.000000   -7.853262
 1110.000000   -6.782563
 1120.000000  -16.644608
 1130.000000   -8.267817
 1140.000000  -13.621283
 1150.000000   -3.237983
 1160.000000  -19.643875
 1170.000000  -12.285453
 1180.000000  -19.773096
 1190.000000  -23.891754
 1200.000000  -16.710051
 1210.000000  -12.182890
 1220.000000  -18.546223
 1230.000000  -21.518124
 1240.000000  -10.494619
 1250.000000   -7.506525
 1260.000000  -16.269772
 1270.000000  -19.020306
 1280.000000  -20.963417
 1290.000000   -8.167261
 1300.000000  -19.901875
 1310.000000  -17.765997
 1320.000000  -12.258247
 1330.000000  -13.228992
 1340.000000  -18.562227
 1350.000000   -7.521617
 1360.000000  -14.963156
 1370.000000  -13.592196
 1380.000000  -18.177441
 1390.000000  -21.102129
 1400.000000  -12.355359
 1410.000000  -10.804210
 1420.000000  -10.977428
 1430.000000   -8.939209
 1440.000000  -18.094383
 1450.000000   -6.238505
 1460.000000  -15.696655
 1470.000000  -12.579295
 1480.000000   -7.584792
 1490.000000  -10.659968
 1500.000000  -17.823099
 1510.000000   -6.556286
 1520.000000  -13.305785
 1530.000000   -8.416311
 1540.000000   -1.171630
 1550.000000   -0.862572
 1560.000000   -9.712215
 1570.000000  -10.046542
 1580.000000   -9.750216
 1590.000000   -4.081964
 1600.000000    2.097300
 1610.000000  -10.443232
 1620.000000  -11.952329
 1630.000000   -7.143269
 1640.000000   -7.009619
 1650.000000  -14.625305
 1660.000000   -8.857344
 1670.000000  -16.455029
 1680.000000   -6.998641
 1690.000000   -8.975953
 1700.000000   -8.193513
 1710.000000  -14.170659
 1720.000000  -18.500530
 1730.000000  -10.017594
 1740.000000  -16.212542
 1750.000000   -7.101851
 1760.000000  -17.826084
 1770.000000  -14.238572
 1780.000000  -15.781540
 1790.000000   -5.944136
 1800.000000   -0.854129
 1810.000000   -9.802015
 1820.000000   -6.453220
 1830.000000   -8.882858
 1840.000000  -12.183520
 1850.000000   -7.802223
 1860.000000   -8.593837
 1870.000000   -3.304390
 1880.000000    2.312615
 1890.000000  -14.505859
 1900.000000  -20.033739
 1910.000000   -3.218662
 1920.000000   -4.493103
 1930.000000   -7.174055
 1940.000000   -9.881253
 1950.000000  -11.606427
 1960.000000   -5.289820
 1970.000000  -17.832834
 1980.000000  -14.821643
 1990.000000  -12.440157
 2000.000000  -13.037086
 2010.000000  -18.715298
 2020.000000  -11.645209
 2030.000000  -21.026220
 2040.000000  -25.096943
 2050.000000  -28.972519
 2060.000000  -41.055656
 2070.000000  -34.053478
 2080.000000  -25.963902
 2090.000000  -25.887066
 2100.000000   -6.350852
 2110.000000   -9.276016
 2120.000000  -14.467812
 2130.000000  -17.795691
 2140.000000  -13.076775
 2150.000000   -8.721439
 2160.000000  -10.459779
 2170.000000  -13.510558
 2180.000000   -3.372684
 2190.000000  -13.742061
 2200.000000  -10.354105
 2210.000000   -5.265992
 2220.000000   -4.917928
 2230.000000   -3.280393
 2240.000000   -7.785437
 2250.000000    0.432538
 2260.000000   -5.174684
 2270.000000   -6.300766
 2280.000000   -9.576353
 2290.000000  -13.550659
 2300.000000   -2.238815
 2310.000000   -0.145034
 2320.000000   -6.208910
 2330.000000  -12.465408
 2340.000000  -14.104902
 2350.000000  -15.577888
 2360.000000  -13.119379
 2370.000000   -7.684642
 2380.000000    1.968691
 2390.000000  -12.310933
 2400.000000  -11.012091
 2410.000000   -4.932802
 2420.000000   -1.795013
 2430.000000   -2.616925
 2440.000000   -6.372195
 2450.000000   -8.910979
 2460.000000   -1.394190
 2470.000000   -2.277718
 2480.000000  -14.451727
 2490.000000   -9.478539
 2500.000000   -9.913129
 2510.000000    3.105693
 2520.000000  -13.582460
 2530.000000   -8.729400
 2540.000000  -11.919874
 2550.000000   -0.998021
 2560.000000   -5.553555
 2570.000000    0.184840
 2580.000000   -5.739465
 2590.000000   -8.993336
 2600.000000   -5.228090
 2610.000000   -9.962997
 2620.000000   -9.645924
 2630.000000   -5.249487
 2640.000000   -9.531015
 2650.000000   -5.328372
 2660.000000   -9.025883
 2670.000000  -18.744682
 2680.000000  -10.441016
 2690.000000   -9.525296
 2700.000000   -7.556557
 2710.000000  -17.599459
 2720.000000   -8.742404
 2730.000000  -10.900852
 2740.000000   -7.297733
 2750.000000   -6.962675
 2760.000000   -9.198640
 2770.000000   -8.922657
 2780.000000   -8.112530
 2790.000000  -19.270168
 2800.000000   -8.980742
 2810.000000  -13.439148
 2820.000000  -17.862799
 2830.000000  -20.595982
 2840.000000  -14.456143
 2850.000000  -13.430777
 2860.000000   -3.244495
 2870.000000  -14.682287
 2880.000000   -6.634355
 2890.000000   -8.205400
 2900.000000   -7.863603
 2910.000000  -17.093395
 2920.000000  -21.141436
 2930.000000  -21.292162
 2940.000000   -6.955823
 2950.000000   -5.671725
 2960.000000   -9.212406
 2970.000000   -5.596506
 2980.000000  -15.756825
 2990.000000    6.447175
 3000.000000   -3.702137
 3010.000000  -15.957386
 3020.000000   -9.227622
 3030.000000  -13.485368
 3040.000000   -7.980317
 3050.000000  -14.682650
 3060.000000   -9.446912
 3070.000000   -7.662202
 3080.000000  -16.183685
 3090.000000   -4.384193
 3100.000000  -16.914129
 3110.000000  -12.977534
 3120.000000  -11.784059
 3130.000000  -14.958709
 3140.000000   -7.196677
 3150.000000   -8.133011
 3160.000000    2.388582
 3170.000000  -11.358586
 3180.000000  -12.251195
 3190.000000  -10.615962
 3200.000000  -13.013720
 3210.000000  -13.865731
 3220.000000  -16.766693
 3230.000000  -18.454624
 3240.000000   -9.330072
 3250.000000  -15.455168
 3260.000000  -13.074603
 3270.000000  -16.033657
 3280.000000   -7.317306
 3290.000000  -19.451221
 3300.000000  -22.631020
 3310.000000   -1.757056
 3320.000000  -20.954157
 3330.000000  -15.247901
 3340.000000  -20.849230
 3350.000000  -15.959846
 3360.000000  -15.731871
 3370.000000  -13.038225
 3380.000000    2.003876
 3390.000000    0.426559
 3400.000000  -14.898311
 3410.000000  -12.534532
 3420.000000   -3.034071
 3430.000000  -20.855833
 3440.000000  -16.976477
 3450.000000  -17.290211
 3460.000000  -17.954859
 3470.000000  -15.359998
 3480.000000   -8.034086
 3490.000000  -12.275177
 3500.000000  -19.460567
 3510.000000  -15.183252
 3520.000000  -13.925080
 3530.000000  -14.185405
 3540.000000  -12.658158
 3550.000000  -20.527149
 3560.000000  -13.626703
 3570.000000   -6.304646
 3580.000000  -18.662466
 3590.000000  -16.777601
 3600.000000   -7.253771
 3610.000000  -11.384825
 3620.000000  -13.262496
 3630.000000   -8.772906
 3640.000000  -13.580063
 3650.000000   -1.900386
 3660.000000  -17.807987
 3670.000000  -13.076717
 3680.000000   -0.652147
 3690.000000    3.756582
 3700.000000  -19.652403
 3710.000000  -13.410132
 3720.000000  -17.009050
 3730.000000  -17.497282
 3740.000000   -8.643166
 3750.000000  -13.035583
 3760.000000    0.311342
 3770.000000   -7.794408
 3780.000000   -7.229618
 3790.000000   -9.958164
 3800.000000  -10.638734
 3810.000000   -6.572131
 3820.000000   -9.587708
 3830.000000  -11.556386
 3840.000000  -17.047295
 3850.000000  -15.837985
 3860.000000   -7.020947
 3870.000000  -14.565359
 3880.000000  -10.472554
 3890.000000  -10.685581
 3900.000000  -11.710573
 3910.000000   -9.341247
 3920.000000   -2.504014
 3930.000000  -16.542591
 3940.000000  -16.205750
 3950.000000  -14.362329
 3960.000000  -21.691120
 3970.000000  -11.093170
 3980.000000  -17.214680
 3990.000000  -16.546867
 4000.000000  -22.333624
 4010.000000  -14.477356
 4020.000000  -16.996681
 4030.000000   -9.286529
 4040.000000  -17.541618
 4050.000000  -13.087225
 4060.000000  -13.706471
 4070.000000  -20.973064
 4080.000000  -17.054728
 4090.000000  -16.014845
 4100.000000   -8.564793
 4110.000000  -18.253944
 4120.000000  -10.061614
 4130.000000  -12.421900
 4140.000000  -12.190886
 4150.000000   -7.059587
 4160.000000  -12.253251
 4170.000000   -9.583963
 4180.000000  -16.683680
 4190.000000  -10.447323
 4200.000000  -18.203197
 4210.000000  -13.791050
 4220.000000   -5.352500
 4230.000000  -16.951118
 4240.000000  -12.409291
 4250.000000  -13.862853
 4260.000000   -7.342423
 4270.000000  -11.532232
 4280.000000  -19.708109
 4290.000000    1.896126
 4300.000000  -16.533394
 4310.000000  -12.144915
 4320.000000   -5.027943
 4330.000000   -8.136976
 4340.000000   -3.387864
 4350.000000  -14.220277
 4360.000000   -6.081350
 4370.000000   -5.738369
 4380.000000  -10.977968
 4390.000000  -12.841809
 4400.000000    3.022936
 4410.000000   -8.103703
 4420.000000    1.076431
 4430.000000  -11.205300
 4440.000000   -6.437338
 4450.000000   -9.298738
 4460.000000  -12.221992
 4470.000000   -3.186556
 4480.000000  -10.494005
 4490.000000   -6.961056
 4500.000000   -4.233829
 4510.000000   -7.558415
 4520.000000  -14.863872
 4530.000000   -5.931984
 4540.000000  -11.018448
 4550.000000   -5.193867
 4560.000000   -7.962393
 4570.000000  -15.461693
 4580.000000   -8.837042
 4590.000000   -9.302897
 4600.000000  -19.424519
 4610.000000  -16.201017
 4620.000000  -11.657724
 4630.000000   -4.139153
 4640.000000   -5.264674
 4650.000000  -11.958982
 4660.000000  -16.452959
 4670.000000  -16.911392
 4680.000000   -0.916117
 4690.000000   -6.511069
 4700.000000   -2.773723
 4710.000000  -16.857733
 4720.000000   -7.475948
 4730.000000   -8.326755
 4740.000000   -7.191661
 4750.000000  -17.568604
 4760.000000  -14.396162
 4770.000000    0.781447
 4780.000000   -2.634219
 4790.000000  -11.563898
 4800.000000   -7.148249
 4810.000000   -3.889477
 4820.000000    0.481753
 4830.000000   -1.142246
 4840.000000   -3.793218
 4850.000000   -6.062456
 4860.000000  -10.747002
 4870.000000   -9.450806
 4880.000000   -9.024614
 4890.000000   -6.449797
 4900.000000   -4.977366
 4910.000000   -2.054113
 4920.000000   -7.647757
 4930.000000    3.323851
 4940.000000   -3.668969
 4950.000000  -11.915030
 4960.000000   -3.010180
 4970.000000   -9.544266
 4980.000000   -2.619492
 4990.000000  -12.576828
 5000.000000   -1.260971
 5010.000000    4.629594
 5020.000000   -3.216866
 5030.000000  -10.810307
 5040.000000   -3.242692
 5050.000000   -9.932234
 5060.000000   -8.431863
 5070.000000    1.893903
 5080.000000    1.861180
 5090.000000   -7.149709
 5100.000000  -12.297611
 5110.000000  -18.834209
 5120.000000  -13.209579
 5130.000000  -12.450081
 5140.000000   -8.436997
 5150.000000  -23.484837
 5160.000000   -9.850786
 5170.000000  -12.978760
 5180.000000  -19.200504
 5190.000000  -13.996962
 5200.000000  -18.232040
 5210.000000   -9.646897
 5220.000000  -21.086441
 5230.000000  -12.578938
 5240.000000  -14.335184
 5250.000000  -17.864656
 5260.000000   -4.085687
 5270.000000  -23.154726
 5280.000000  -17.769211
 5290.000000   -2.294333
 5300.000000  -11.992246
 5310.000000  -11.621075
 5320.000000  -15.544689
 5330.000000  -18.403769
 5340.000000  -18.322327
 5350.000000  -22.170122
 5360.000000   -2.840899
 5370.000000  -16.140162
 5380.000000   -8.172762
 5390.000000  -24.045563
 5400.000000   -7.716025
 5410.000000   -2.606576
 5420.000000  -16.369581
 5430.000000   -8.294831
 5440.000000   -3.588208
 5450.000000   -6.502186
 5460.000000  -10.981513
 5470.000000  -15.496933
 5480.000000  -13.201714
 5490.000000  -16.834139
 5500.000000    3.908370
 5510.000000   -5.442329
 5520.000000  -15.964274
 5530.000000  -15.979707
 5540.000000   -4.183277
 5550.000000   -3.657266
 5560.000000  -10.919551
 5570.000000   -7.122278
 5580.000000   -7.616240
 5590.000000   -5.444477
 5600.000000  -15.467190
 5610.000000   -8.805776
 5620.000000   -9.547407
 5630.000000   -5.445945
 5640.000000   -8.979222
 5650.000000  -20.479347
 5660.000000  -16.080307
 5670.000000   -4.643358
 5680.000000  -14.161479
 5690.000000  -21.333435
 5700.000000   -7.502750
 5710.000000  -14.445205
 5720.000000   -5.748487
 5730.000000  -17.068996
 5740.000000  -10.706621
 5750.000000  -11.762298
 5760.000000   -8.224598
 5770.000000  -16.056765
 5780.000000  -18.817596
 5790.000000  -10.395815
 5800.000000  -11.278800
 5810.000000  -10.373093
 5820.000000    6.046575
 5830.000000   -6.889571
 5840.000000  -11.720556
 5850.000000  -23.295452
 5860.000000  -19.017584
 5870.000000    2.530253
 5880.000000   -7.606861
 5890.000000  -10.177949
 5900.000000  -20.414871
 5910.000000   -5.032875
 5920.000000    5.363960
 5930.000000   -3.660303
 5940.000000   -7.525836
 5950.000000   -1.670880
 5960.000000  -10.647404
 5970.000000  -10.197689
 5980.000000  -11.443200
 5990.000000  -10.679834
 6000.000000  -13.942171
 6010.000000  -17.490557
 6020.000000  -19.273211
 6030.000000   -8.278396
 6040.000000   -4.306079
 6050.000000   -6.308000
 6060.000000  -12.797965
 6070.000000   -5.066441
 6080.000000  -12.051711
 6090.000000  -11.649796
 6100.000000   -3.732552
 6110.000000  -11.431811
 6120.000000  -17.035030
 6130.000000  -11.152258
 6140.000000   -8.751895
 6150.000000  -22.994757
 6160.000000  -15.401227
 6170.000000  -13.256321
 6180.000000  -13.260962
 6190.000000  -12.139952
 6200.000000  -12.950293
 6210.000000  -16.315205
 6220.000000   -5.947673
 6230.000000   -3.439511
 6240.000000  -16.788340
 6250.000000  -12.588036
 6260.000000   -3.429492
 6270.000000   -9.939109
 6280.000000  -24.212784
 6290.000000  -17.171322
 6300.000000  -14.131104
 6310.000000  -17.613337
 6320.000000  -15.496403
 6330.000000  -20.233646
 6340.000000   -3.478973
 6350.000000   -4.576608
 6360.000000   -9.023789
 6370.000000  -22.832804
 6380.000000  -20.598909
 6390.000000  -19.392153
 6400.000000  -15.597172
 6410.000000  -10.897375
 6420.000000  -15.174314
 6430.000000  -15.535546
 6440.000000  -10.794134
 6450.000000  -10.619573
 6460.000000  -16.294470
 6470.000000   -8.530443
 6480.000000   -3.036041
 6490.000000   -3.221295
 6500.000000   -3.860655
 6510.000000   -8.590451
 6520.000000   -7.518356
 6530.000000  -14.891479
 6540.000000   -4.674909
 6550.000000  -13.027135
 6560.000000  -14.148569
 6570.000000   -7.388986
 6580.000000   -0.646749
 6590.000000   -2.605346
 6600.000000   -8.545891
 6610.000000  -18.810122
 6620.000000  -15.612844
 6630.000000  -15.745182
 6640.000000   -1.896509
 6650.000000   -2.501803
 6660.000000   -9.952395
 6670.000000   -3.890757
 6680.000000  -16.017107
 6690.000000   -6.712536
 6700.000000   -3.221978
 6710.000000   -1.068951
 6720.000000   -3.625932
 6730.000000  -16.492935
 6740.000000  -14.748186
 6750.000000    5.851857
 6760.000000  -13.131319
 6770.000000  -10.981647
 6780.000000   -7.953405
 6790.000000  -15.472822
 6800.000000   -7.146822
 6810.000000  -10.078174
 6820.000000  -10.731947
 6830.000000  -15.854879
 6840.000000  -13.200122
 6850.000000  -14.992726
 6860.000000   -5.095894
 6870.000000  -13.465664
 6880.000000  -24.088799
 6890.000000  -17.742865
 6900.000000   -9.271353
 6910.000000  -15.528545
 6920.000000  -10.323008
 6930.000000   -9.301816
 6940.000000  -12.509115
 6950.000000  -36.757885
 6960.000000  -26.561474
 6970.000000  -20.617430
 6980.000000  -16.637482
 6990.000000  -19.787319
 7000.000000  -11.557485
 7010.000000  -18.386356
 7020.000000   -5.651708
 7030.000000  -20.209476
 7040.000000  -12.864836
 7050.000000  -10.019351
 7060.000000    2.128783
 7070.000000   -1.234675
 7080.000000  -15.706363
 7090.000000  -21.331766
 7100.000000  -25.985502
 7110.000000  -28.281794
 7120.000000  -12.954302
 7130.000000   -6.577441
 7140.000000   -9.300431
 7150.000000    1.782957
 7160.000000   -7.749575
 7170.000000   -5.509619
 7180.000000  -16.072203
 7190.000000   -6.626256
 7200.000000  -18.511162
 7210.000000  -10.411813
 7220.000000  -12.183978
 7230.000000  -12.375537
 7240.000000  -12.718060
 7250.000000  -12.762418
 7260.000000  -14.151131
 7270.000000   -7.179067
 7280.000000   -8.843309
 7290.000000  -19.392691
 7300.000000   -7.100675
 7310.000000  -18.184015
 7320.000000  -10.521259
 7330.000000   -9.564986
 7340.000000   -7.048205
 7350.000000  -15.334959
 7360.000000  -13.522755
 7370.000000  -12.024513
 7380.000000  -14.876198
 7390.000000  -12.668543
 7400.000000  -14.812845
 7410.000000  -13.291343
 7420.000000   -9.113863
 7430.000000  -12.023080
 7440.000000  -14.887910
 7450.000000   -7.766796
 7460.000000  -17.209167
 7470.000000  -16.239704
 7480.000000  -19.498611
 7490.000000  -12.835356
 7500.000000   -7.557794
 7510.000000   -9.495596
 7520.000000  -15.464090
 7530.000000  -14.765476
 7540.000000  -12.214005
 7550.000000   -2.372175
 7560.000000  -11.855517
 7570.000000   -9.629866
 7580.000000   -0.004470
 7590.000000   -9.817613
 7600.000000   -2.868830
 7610.000000   -7.551086
 7620.000000  -21.146784
 7630.000000  -25.425644
 7640.000000  -18.160486
 7650.000000  -17.489803
 7660.000000    4.355309
 7670.000000  -17.038221
 7680.000000   -9.729040
 7690.000000  -21.370708
 7700.000000  -18.863483
 7710.000000  -14.775361
 7720.000000  -12.860341
 7730.000000  -12.046537
 7740.000000   -5.590035
 7750.000000  -11.148530
 7760.000000  -22.250933
 7770.000000  -22.034483
 7780.000000  -24.775829
 7790.000000   -7.514190
 7800.000000  -18.692005
 7810.000000  -17.963186
 7820.000000  -21.568602
 7830.000000   -9.227916
 7840.000000  -13.866572
 7850.000000  -17.685389
 7860.000000   -9.563728
 7870.000000   -8.787786
 7880.000000  -12.661452
 7890.000000  -17.227650
 7900.000000   -4.825151
 7910.000000  -11.600793
 7920.000000  -14.095201
 7930.000000  -11.289546
 7940.000000   -7.375139
 7950.000000  -10.144382
 7960.000000   -6.923948
 7970.000000  -16.123175
 7980.000000   -6.999561
 7990.000000   -4.395758
 8000.000000   -9.949356
 8010.000000  -12.431536
 8020.000000   -8.431744
 8030.000000  -15.137499
 8040.000000  -17.133968
 8050.000000  -11.974052
 8060.000000  -15.836056
 8070.000000   -5.960680
 8080.000000   -6.161413
 8090.000000  -11.650665
 8100.000000   -6.315434
 8110.000000   -3.582245
 8120.000000   -4.999477
 8130.000000    5.699492
 8140.000000    0.983177
 8150.000000   -9.929160
 8160.000000   -7.941419
 8170.000000  -12.221341
 8180.000000   -6.056462
 8190.000000    1.954957
 8200.000000   -0.340650
 8210.000000  -16.643206
 8220.000000   -8.927195
 8230.000000  -11.921648
 8240.000000  -15.054663
 8250.000000  -20.155849
 8260.000000  -15.912700
 8270.000000  -13.652756
 8280.000000  -17.818850
 8290.000000  -12.598398
 8300.000000  -16.577078
 8310.000000  -11.722513
 8320.000000  -15.382160
 8330.000000   -5.425951
 8340.000000    6.890931
 8350.000000  -10.143100
 8360.000000  -12.554611
 8370.000000   -7.139041
 8380.000000   -5.468164
 8390.000000  -16.556723
 8400.000000    4.469119
 8410.000000   -5.980055
 8420.000000  -13.310379
 8430.000000   -8.866925
 8440.000000  -12.121666
 8450.000000  -14.378081
 8460.000000  -11.939692
 8470.000000  -11.945013
 8480.000000  -16.148800
 8490.000000  -13.065798
 8500.000000  -15.891041
 8510.000000  -14.084916
 8520.000000  -12.326345
 8530.000000   -3.661756
 8540.000000   -9.459883
 8550.000000  -13.458014
 8560.000000  -13.468008
 8570.000000  -15.176654
 8580.000000   -9.967209
 8590.000000  -11.752356
 8600.000000  -15.699013
 8610.000000   -2.947248
 8620.000000  -14.885502
 8630.000000   -7.635530
 8640.000000  -12.826194
 8650.000000   -5.116300
 8660.000000  -17.190964
 8670.000000   -9.684183
 8680.000000  -14.227026
 8690.000000  -12.420341
 8700.000000  -11.346518
 8710.000000  -12.376627
 8720.000000  -14.141397
 8730.000000  -12.532288
 8740.000000   -7.033451
 8750.000000   -6.068769
 8760.000000  -16.130327
 8770.000000  -14.650548
 8780.000000    0.417297
 8790.000000  -18.896790
 8800.000000  -10.469238
 8810.000000   -8.346638
 8820.000000  -14.249440
 8830.000000  -14.982327
 8840.000000  -14.363108
 8850.000000  -10.923311
 8860.000000  -15.564416
 8870.000000  -10.972399
 8880.000000  -17.476189
 8890.000000  -12.847037
 8900.000000   -7.323656
 8910.000000   -1.963679
 8920.000000  -11.956736
 8930.000000   -7.980728
 8940.000000  -13.087117
 8950.000000  -10.783044
 8960.000000   -6.972714
 8970.000000  -13.658455
 8980.000000   -7.040977
 8990.000000  -15.711681
 9000.000000  -11.081065
 9010.000000   -8.925753
 9020.000000  -15.985716
 9030.000000   -6.963418
 9040.000000  -16.425152
 9050.000000  -14.065876
 9060.000000  -13.704904
 9070.000000   -5.244171
 9080.000000   -5.561658
 9090.000000  -13.101148
 9100.000000   -8.141123
 9110.000000   -4.245466
 9120.000000   -6.040921
 9130.000000   -9.694688
 9140.000000   -7.652524
 9150.000000   -8.477198
 9160.000000  -17.536438
 9170.000000  -12.085775
 9180.000000  -14.101835
 9190.000000   10.096239
 9200.000000    1.695319
 9210.000000   -9.002484
 9220.000000  -19.331036
 9230.000000  -20.621475
 9240.000000  -19.305395
 9250.000000   -8.680453
 9260.000000  -14.956400
 9270.000000   -7.396031
 9280.000000  -13.611308
 9290.000000  -16.786123
 9300.000000  -19.935915
 9310.000000  -19.920145
 9320.000000  -12.433100
 9330.000000   -7.110643
 9340.000000   -2.689068
 9350.000000   -7.546232
 9360.000000  -13.964834
 9370.000000  -15.785427
 9380.000000  -15.180966
 9390.000000  -12.195031
 9400.000000  -18.714954
 9410.000000  -12.582086
 9420.000000  -14.296009
 9430.000000  -11.949135
 9440.000000  -12.624485
 9450.000000  -14.061653
 9460.000000  -19.431536
 9470.000000   -8.180124
 9480.000000   -6.168504
 9490.000000  -12.932298
 9500.000000  -12.952382
 9510.000000  -17.667719
 9520.000000  -20.378000
 9530.000000  -20.253046
 9540.000000   -9.728735
 9550.000000  -15.829153
 9560.000000  -11.438184
 9570.000000  -15.924857
 9580.000000    0.680116
 9590.000000  -14.821318
 9600.000000  -10.568000
 9610.000000  -19.554537
 9620.000000  -14.833282
 9630.000000  -12.998547
 9640.000000  -12.053519
 9650.000000   -6.575408
 9660.000000  -13.079938
 9670.000000  -13.299656
 9680.000000   -8.888710
 9690.000000   -8.070349
 9700.000000   -8.114107
 9710.000000   -7.720863
 9720.000000   -4.783567
 9730.000000   -9.982328
 9740.000000  -11.000688
 9750.000000  -13.026550
 9760.000000   -5.950437
 9770.000000  -21.243383
 9780.000000  -19.446877
 9790.000000  -11.545708
 9800.000000   -4.160773
 9810.000000  -16.904108
 9820.000000   -7.971161
 9830.000000  -17.318207
 9840.000000   -0.608475
 9850.000000  -12.758610
 9860.000000   -4.953835
 9870.000000  -11.387652
 9880.000000  -16.472443
 9890.000000  -10.481435
 9900.000000  -13.778023
 9910.000000  -12.290864
 9920.000000  -16.073971
 9930.000000  -18.536055
 9940.000000  -15.942451
 9950.000000  -14.880446
 9960.000000  -18.574816
 9970.000000  -13.951240
 9980.000000  -25.818859
 9990.000000  -19.998432
10000.000000  -19.811052
